<svg xmlns="http://www.w3.org/2000/svg" xmlns:xlink="http://www.w3.org/1999/xlink" viewBox="0 0 168.8372 221.4874">
  <defs>
    <style>
      .cls-1 {
        fill: url(#linear-gradient);
      }

      .cls-2 {
        fill: #de350b;
      }

      .cls-3 {
        fill: #ff5630;
      }

      .cls-4 {
        fill: #ff7452;
      }

      .cls-5 {
        fill: #344563;
      }
    </style>
    <linearGradient id="linear-gradient" x1="49.4199" y1="59.7673" x2="122.662" y2="59.7673" gradientUnits="userSpaceOnUse">
      <stop offset="0" stop-color="#0065ff"/>
      <stop offset="0.2188" stop-color="#0b6cff"/>
      <stop offset="0.5999" stop-color="#2780ff"/>
      <stop offset="1" stop-color="#4c9aff"/>
    </linearGradient>
  </defs>
  <title>Lock</title>
  <g id="Layer_2" data-name="Layer 2">
    <g id="Objects">
      <path class="cls-1" d="M122.662,119.5347H49.42V36.6206a36.6211,36.6211,0,0,1,73.2422,0Zm-61.2422-12H110.662V36.6206a24.6211,24.6211,0,0,0-49.2422,0Z"/>
      <path class="cls-2" d="M160.3239,111.17a65.4958,65.4958,0,0,1-5.657-46.1172l.0022-.0088a5.0533,5.0533,0,0,0-4.9039-6.273H19.072a5.0533,5.0533,0,0,0-4.9038,6.273l.0015.0057a66.1488,66.1488,0,0,1-5.7847,46.3674,75.4908,75.4908,0,0,0,65.21,110.0468c.0325.0008.0642-.0009.0967,0h.0017c.0332.0008.0652-.0009.0977,0h.0024c.0325.0008.0643-.0009.0968,0h.0024c.0325.0008.0643-.0009.0968,0h.0024c.0325.0008.0643-.0009.0968,0h.0016c.0333.0008.0652-.0009.0977,0h.0024c.0325.0008.0645-.0009.0969,0H74.29c.0325.0008.0642-.0009.0967,0h.0024c.0325.0008.0645-.0009.0969,0h.0016c.0333.0008.0652-.0009.0977,0h.0024c.0325.0008.0643-.0009.0968,0h.0024c.0325.0008.0643-.0009.0968,0h.0024c.0325.0008.0643-.0009.0968,0h.0017c.0332.0008.0652-.0009.0977,0h.0024c.0325.0008.0642-.0009.0967,0h.0024c.0325.0008.0645-.0009.0969,0h.0024c.0325.0008.0642-.0009.0967,0h.0017c.0332.0008.0652-.0009.0977,0h.0024c.0325.0008.0643-.0009.0968,0h.0024c.0325.0008.0643-.0009.0968,0H75.58c.0332.0008.0652-.0009.0977,0H75.68c.0325.0008.0642-.0009.0967,0h.0024c.0325.0008.0645-.0009.0969,0h.0024c.0325.0008.0642-.0009.0967,0h.0017c.0332.0008.0652-.0009.0977,0h.0024c.0325.0008.0643-.0009.0968,0h.0024c.0325.0008.0643-.0009.0968,0h.0024c.0325.0008.0643-.0009.0968,0h.0024c.0325.0008.0643-.0009.0968,0h.0024c.0325.0008.0645-.0009.0969,0h.0024c.0325.0008.0642-.0009.0967,0h.0024c.0325.0008.0645-.0009.0969,0h.0017c.0332.0008.0651-.0009.0975,0h.0024c.0325.0008.0643-.0009.0968,0H76.97c.0325.0008.0643-.0009.0968,0h.0024c.0325.0008.0643-.0009.0968,0h.0017c.0332.0008.0652-.0009.0977,0h.0024c.0325.0008.0642-.0009.0967,0h.0024c.0325.0008.0645-.0009.0969,0h.0024c.0325.0008.0643-.0009.0968,0h.0024c.0325.0008.0643-.0009.0968,0h.0024c.0325.0008.0643-.0009.0968,0h.0024c.0325.0008.0643-.0009.0968,0h.0024c.0325.0008.0645-.0009.0969,0h.0024c.0325.0008.0642-.0009.0967,0h.0024c.0325.0008.0645-.0009.0969,0h.0024c.0325.0008.0643-.0009.0968,0H78.26c.0325.0008.0643-.0009.0968,0H78.36c.0325.0008.0643-.0009.0968,0h.0024c.0325.0008.0643-.0009.0968,0h.0024c.0325.0008.0645-.0009.0969,0h.0016c.0333.0008.0651-.0009.0975,0h.0024c.0325.0008.0645-.0009.0969,0h.0024c.0325.0008.0643-.0009.0968,0h.0024c.0325.0008.0643-.0009.0968,0h.0017c.0332.0008.0651-.0009.0975,0h.0024c.0325.0008.0643-.0009.0968,0h.0024c.0325.0008.0645-.0009.0969,0h.0024c.0325.0008.0642-.0009.0967,0h.0017c.0332.0008.0652-.0009.0977,0h.0024c.0325.0008.0643-.0009.0968,0H79.65c.0325.0008.0643-.0009.0968,0h.0024c.0325.0008.0643-.0009.0968,0h.0016c.0333.0008.0652-.0009.0977,0h.0024c.0325.0008.0645-.0009.0969,0h.0024c.0325.0008.0642-.0009.0967,0h.0024c.0325.0008.0645-.0009.0969,0h.0024c.0325.0008.0642-.0009.0967,0h.0024c.0325.0008.0645-.0009.0969,0h.0024c.0325.0008.0643-.0009.0968,0h.0024c.0325.0008.0643-.0009.0968,0h.0024c.0325.0008.0645-.0009.0969,0h.0024c.0325.0008.0642-.0009.0967,0h.0024c.0325.0008.0645-.0009.0969,0H80.94c.0333.0008.0651-.0009.0975,0h.0024c.0325.0008.0645-.0009.0969,0h.0024c.0325.0008.0643-.0009.0968,0h.0024c.0325.0008.0643-.0009.0968,0h.0017c.0332.0008.0651-.0009.0975,0h.0024c.0325.0008.0643-.0009.0968,0h.0024c.0325.0008.0645-.0009.0969,0h.0024c.0325.0008.0642-.0009.0967,0h.0017c.0332.0008.0652-.0009.0977,0h.0024c.0325.0008.0643-.0009.0968,0h.0024c.0325.0008.0643-.0009.0968,0h.0024c.0325.0008.0643-.0009.0968,0h.0016c.0333.0008.0652-.0009.0977,0h.0024c.0325.0008.0645-.0009.0969,0H82.33c.0325.0008.0642-.0009.0967,0h.0024c.0325.0008.0645-.0009.0969,0h.0024c.0325.0008.0643-.0009.0968,0h.0024c.0325.0008.0643-.0009.0968,0h.0024c.0325.0008.0643-.0009.0968,0h.0024c.0325.0008.0643-.0009.0968,0h.0017c.0332.0008.0652-.0009.0977,0h.0024c.0325.0008.0642-.0009.0967,0h.0024c.0325.0008.0645-.0009.0969,0h.0024c.0325.0008.0643-.0009.0968,0h.0024c.0325.0008.0643-.0009.0968,0h.0024c.0325.0008.0643-.0009.0968,0h.0024c.0325.0008.0643-.0009.0968,0H83.62c.0332.0008.0652-.0009.0977,0H83.72c.0325.0008.0642-.0009.0967,0h.0024c.0325.0008.0645-.0009.0969,0h.0024c.0325.0008.0643-.0009.0968,0h.0016c.0333.0008.0652-.0009.0977,0h.0024c.0325.0008.0643-.0009.0968,0h.0024c.0325.0008.0643-.0009.0968,0h.0024c.0325.0008.0645-.0009.0969,0h.0024c.0325.0008.0642-.0009.0967,0h.0024c.0325.0008.0645-.0009.0969,0h.0024c.0325.0008.0642-.0009.0967,0h.0024c.0325.0008.0645-.0009.0969,0h.0017c.0332.0008.0651-.0009.0975,0h.0024c.0325.0008.0643-.0009.0968,0H85.01c.0325.0008.0645-.0009.0969,0h.0024c.0325.0008.0642-.0009.0967,0h.0017c.0332.0008.0652-.0009.0977,0h.0024c.0325.0008.0642-.0009.0967,0h.0024c.0325.0008.0645-.0009.0969,0h.0017c.0332.0008.0651-.0009.0975,0h.0024c.0325.0008.0643-.0009.0968,0h.0024c.0325.0008.0643-.0009.0968,0h.0024c.0325.0008.0643-.0009.0968,0h.0017c.0332.0008.0652-.0009.0977,0h.0024c.0325.0008.0642-.0009.0967,0h.0024c.0325.0008.0645-.0009.0969,0h.0024c.0325.0008.0643-.0009.0968,0h.0016c.0333.0008.0652-.0009.0977,0H86.4c.0325.0008.0643-.0009.0968,0h.0024c.0325.0008.0643-.0009.0968,0h.0024c.0325.0008.0645-.0009.0969,0h.0016c.0333.0008.0651-.0009.0975,0h.0024c.0325.0008.0645-.0009.0969,0h.0024c.0325.0008.0643-.0009.0968,0h.0024c.0325.0008.0643-.0009.0968,0h.0017c.0332.0008.0651-.0009.0975,0h.0024c.0325.0008.0643-.0009.0968,0h.0024c.0325.0008.0645-.0009.0969,0h.0024c.0325.0008.0642-.0009.0967,0h.0017c.0332.0008.0652-.0009.0977,0h.0024c.0325.0008.0643-.0009.0968,0H87.69c.0325.0008.0643-.0009.0968,0h.0017c.0332.0008.0651-.0009.0975,0h.0016c.0333.0008.0652-.0009.0977,0h.0024c.0325.0008.0645-.0009.0969,0h.0024c.0325.0008.0642-.0009.0967,0h.0024c.0325.0008.0645-.0009.0969,0h.0024c.0325.0008.0643-.0009.0968,0h.0024c.0325.0008.0643-.0009.0968,0h.0024c.0325.0008.0643-.0009.0968,0h.0024c.0325.0008.0643-.0009.0968,0h.0024c.0325.0008.0645-.0009.0969,0h.0024c.0325.0008.0642-.0009.0967,0h.0024c.0325.0008.0645-.0009.0969,0H88.98c.0333.0008.0652-.0009.0977,0H89.08c.0325.0008.0643-.0009.0968,0h.0024c.0325.0008.0643-.0009.0968,0h.0024c.0325.0008.0643-.0009.0968,0h.0017c.0332.0008.0652-.0009.0977,0h.0024c.0325.0008.0642-.0009.0967,0h.0024c.0325.0008.0645-.0009.0969,0h.0024c.0325.0008.0642-.0009.0967,0h.0017c.0332.0008.0652-.0009.0977,0h.0024c.0325.0008.0643-.0009.0968,0h.0024c.0325.0008.0643-.0009.0968,0h.0024c.0325.0008.0645-.0009.0969,0h.0024c.0325.0008.0642-.0009.0967,0h.0024c.0325.0008.0645-.0009.0969,0H90.37c.0325.0008.0642-.0009.0967,0h.0024c.0325.0008.0645-.0009.0969,0h.0024c.0325.0008.0643-.0009.0968,0h.0024c.0325.0008.0643-.0009.0968,0h.0024c.0325.0008.0643-.0009.0968,0h.0024c.0325.0008.0643-.0009.0968,0h.0024c.0325.0008.0645-.0009.0969,0h.0024c.0325.0008.0642-.0009.0967,0h.0024c.0325.0008.0645-.0009.0969,0h.0017c.0332.0008.0651-.0009.0975,0h.0024c.0325.0008.0643-.0009.0968,0h.0024A75.491,75.491,0,0,0,160.3239,111.17Z"/>
      <path class="cls-3" d="M154.6669,65.0531l.0022-.0088a5.0533,5.0533,0,0,0-4.9039-6.273H36.9388a5.0533,5.0533,0,0,0-4.9039,6.273l.0014.0057a66.1491,66.1491,0,0,1-5.7845,46.3674,75.4854,75.4854,0,1,0,134.072-.2471A65.4957,65.4957,0,0,1,154.6669,65.0531Z"/>
      <path id="_Path_" data-name="&lt;Path&gt;" class="cls-4" d="M93.3523,213.6q-.8454,0-1.6973-.0205a67.6029,67.6029,0,0,1-58.3963-98.5383A74.3762,74.3762,0,0,0,40.47,66.6589H146.2318a73.488,73.488,0,0,0,7.0986,48.16A67.6006,67.6006,0,0,1,93.3549,213.6Z"/>
      <path class="cls-3" d="M90.0071,176.8851a16.3079,16.3079,0,0,1-16.1149-18.8193l2.23-14.3217a24.1482,24.1482,0,0,1,16.087-41.053c.3821-.0176.7658-.0265,1.1435-.0265a24.1491,24.1491,0,0,1,17.229,41.0809l2.2312,14.32a16.31,16.31,0,0,1-16.1149,18.8193Z"/>
      <path id="_Path_2" data-name="&lt;Path&gt;" class="cls-2" d="M108.481,126.8237a15.0613,15.0613,0,0,1-4.83,11.0676,7.2219,7.2219,0,0,0-2.1218,6.4121l2.3594,15.1531a7.2783,7.2783,0,0,1-7.1916,8.3981h-6.69a7.2783,7.2783,0,0,1-7.1916-8.3981l2.3872-15.3318a7.2321,7.2321,0,0,0-2.2684-6.345,15.0639,15.0639,0,0,1-4.6905-11.7523,15.1293,15.1293,0,0,1,30.2376.7963Z"/>
      <path class="cls-5" d="M82.8151,159.4565a7.2565,7.2565,0,1,0,14.3328,0l-2.3594-15.1531a7.2215,7.2215,0,0,1,2.1217-6.4121,15.1041,15.1041,0,0,0-6.9452-25.804,15.2678,15.2678,0,0,0-11.7216,13.94A15.0634,15.0634,0,0,0,82.934,137.78a7.232,7.232,0,0,1,2.2683,6.3449Z"/>
    </g>
  </g>
</svg>
